社會科學統計方法（107學年第2學期260940001）
…
quakes這筆資料的列名稱看起來是數字，卻被視為字串。

以及

state.x77

class(row.names(state.x77))

字串經常會被誤認為因素(factor)，具有類別，例如1,000個受訪者中可能有500多個男或是女，因此R視為因素變數而非字串。 例如，我們到政府開放資料網站下載一筆資料：

library(foreign); library(tidyverse)
dat<-read.csv("opendata106N0101.csv", header=T)
as.tibble(dat)

## # A tibble: 375 x 4
##    code         年底人口數 土地面積 人口密度
##    <fct>        <fct>         <dbl> <fct>   
##  1 新北市板橋區 551480        23.1  23835   
##  2 新北市三重區 387484        16.3  23747   
##  3 新北市中和區 413590        20.1  20532   
##  4 新北市永和區 222585         5.71 38956   
##  5 新北市新莊區 416524        19.7  21102   
##  6 新北市新店區 302089       120.   2513    
##  7 新北市樹林區 184149        33.1  5559    
##  8 新北市鶯歌區 86593         21.1  4099    
##  9 新北市三峽區 114926       191.   600     
## 10 新北市淡水區 169597        70.7  2400    
## # ... with 365 more rows

可以看出許多變數被視為因素。 加上stringsAsFactors = F避免把字串當做因素：

dat<-read.csv("opendata106N0101.csv", header=T, stringsAsFactors = F)
dat<-as.tibble(dat); dat

## # A tibble: 375 x 4
##    code         年底人口數 土地面積 人口密度
##    <chr>        <chr>         <dbl> <chr>   
##  1 新北市板橋區 551480        23.1  23835   
##  2 新北市三重區 387484        16.3  23747   
##  3 新北市中和區 413590        20.1  20532   
##  4 新北市永和區 222585         5.71 38956   
##  5 新北市新莊區 416524        19.7  21102   
##  6 新北市新店區 302089       120.   2513    
##  7 新北市樹林區 184149        33.1  5559    
##  8 新北市鶯歌區 86593         21.1  4099    
##  9 新北市三峽區 114926       191.   600     
## 10 新北市淡水區 169597        70.7  2400    
## # ... with 365 more rows
…
